Escola ISIS de Radicalização Religiosa: Uma Análise com NLP - Alphabet Sigma
…
  topterms # Retorna.

}

res = dataset %>% 
  treat() %>% 
  topTerms()

res

## # A tibble: 60 x 3
##    topic term       beta
##    <int> <chr>     <dbl>
##  1     1 state   0.0106 
##  2     1 islamic 0.0102 
##  3     1 said    0.00744
##  4     1 people  0.00719
##  5     1 muslims 0.00669
##  6     1 will    0.00571
##  7     1 also    0.00512
##  8     1 war     0.00458
##  9     1 isis    0.00449
## 10     1 syria   0.00440
## # … with 50 more rows
…
