…
  topterms # Retorna.

}

res = dataset %>% 
  treat() %>% 
  topTerms()

res

## # A tibble: 60 x 3
##    topic term         beta
##    <int> <chr>       <dbl>
##  1     1 allah     0.0581 
##  2     1 will      0.0240 
##  3     1 said      0.0158 
##  4     1 indeed    0.0117 
##  5     1 people    0.0114 
##  6     1 upon      0.00826
##  7     1 one       0.00749
##  8     1 messenger 0.00748
##  9     1 lord      0.00745
## 10     1 say       0.00685
## # … with 50 more rows
…
